\BOOKMARK [0][-]{chapter.1}{\332vod}{}% 1
\BOOKMARK [1][-]{section.1.1}{Ofici\341ln\355 zad\341n\355}{chapter.1}% 2
\BOOKMARK [1][-]{section.1.2}{Motivace}{chapter.1}% 3
\BOOKMARK [1][-]{section.1.3}{Struktura pr\341ce}{chapter.1}% 4
\BOOKMARK [1][-]{section.1.4}{Pou\236it\375 software}{chapter.1}% 5
\BOOKMARK [0][-]{chapter.2}{Teorie chaosu a neline\341rn\355 dynamika}{}% 6
\BOOKMARK [1][-]{section.2.1}{Definice chaosu}{chapter.2}% 7
\BOOKMARK [1][-]{section.2.2}{Stavov\375 prostor a stavov\375 portr\351t}{chapter.2}% 8
\BOOKMARK [1][-]{section.2.3}{Disipativn\355 a Hamiltonovsk\351 syst\351my}{chapter.2}% 9
\BOOKMARK [1][-]{section.2.4}{Invarianty syst\351mu}{chapter.2}% 10
\BOOKMARK [2][-]{subsection.2.4.1}{Lyapunovuv exponent}{section.2.4}% 11
\BOOKMARK [2][-]{subsection.2.4.2}{Korelacn\355 dimenze}{section.2.4}% 12
\BOOKMARK [1][-]{section.2.5}{Bifurkacn\355 diagram}{chapter.2}% 13
\BOOKMARK [0][-]{chapter.3}{Numerick\351 metody re\235en\355 obycejn\375ch diferenci\341ln\355ch rovnic}{}% 14
\BOOKMARK [1][-]{section.3.1}{Eulerova metoda}{chapter.3}% 15
\BOOKMARK [1][-]{section.3.2}{Runge\205Kuttova metoda ctvrt\351ho r\341du \(RK4\)}{chapter.3}% 16
\BOOKMARK [1][-]{section.3.3}{Dormand\205Princova metoda \(DOPRI\)}{chapter.3}% 17
\BOOKMARK [1][-]{section.3.4}{Srovn\341n\355 presnosti numerick\375ch metod}{chapter.3}% 18
\BOOKMARK [0][-]{chapter.4}{Modely kapaj\355c\355ho kohoutku}{}% 19
\BOOKMARK [1][-]{section.4.1}{Re\235en\355 rovnov\341\236n\375ch stavu}{chapter.4}% 20
\BOOKMARK [1][-]{section.4.2}{Dynamick\375 kapalinov\375 model \(FDM\)}{chapter.4}% 21
\BOOKMARK [2][-]{subsection.4.2.1}{Lagrangi\341n diskretizovan\351ho syst\351mu kapky}{section.4.2}% 22
\BOOKMARK [2][-]{subsection.4.2.2}{Pohybov\351 rovnice}{section.4.2}% 23
\BOOKMARK [2][-]{subsection.4.2.3}{Simulace v\375voje v case}{section.4.2}% 24
\BOOKMARK [1][-]{section.4.3}{Mass-spring model \(MSM\)}{chapter.4}% 25
\BOOKMARK [2][-]{subsection.4.3.1}{Intervaly odr\236en\355}{section.4.3}% 26
\BOOKMARK [2][-]{subsection.4.3.2}{Zpracov\341n\355 stavov\351ho portr\351tu}{section.4.3}% 27
\BOOKMARK [2][-]{subsection.4.3.3}{Zpracov\341n\355 bifurkacn\355ho diagramu}{section.4.3}% 28
\BOOKMARK [2][-]{subsection.4.3.4}{Zpracov\341n\355 korelacn\355 dimenze}{section.4.3}% 29
\BOOKMARK [2][-]{subsection.4.3.5}{Urcen\355 Lyapunovov\375ch exponentu}{section.4.3}% 30
\BOOKMARK [0][-]{chapter.5}{Model kapaj\355c\355ho disku}{}% 31
\BOOKMARK [0][-]{chapter.6}{Z\341ver}{}% 32
\BOOKMARK [0][-]{chapter.7}{Pr\355lohy}{}% 33
\BOOKMARK [1][-]{section.7.1}{Lorenzuv atraktor}{chapter.7}% 34
\BOOKMARK [1][-]{section.7.2}{Logistick\341 funkce}{chapter.7}% 35
\BOOKMARK [1][-]{section.7.3}{Srovn\341n\355 numerick\375ch metod re\235en\355 obycejn\375ch diferenci\341ln\355ch rovnic}{chapter.7}% 36
\BOOKMARK [1][-]{section.7.4}{Roznov\341\236n\351 stavy kapek}{chapter.7}% 37
\BOOKMARK [1][-]{section.7.5}{Dynamick\375 model kapaj\355c\355ho kohoutku \(FDM\)}{chapter.7}% 38
\BOOKMARK [1][-]{section.7.6}{Mass-spring model kapaj\355c\355ho kohoutku \(MSM\)}{chapter.7}% 39
\BOOKMARK [0][-]{lstnumber.-5.96}{Literatura}{}% 40
