1.228324054298642748e-02,1.042378683557880980e-04
1.474710805429864727e-02,1.277737185225381238e-04
1.502657104072398393e-02,1.746332468272909398e-04
1.509609303167420806e-02,2.017381453653456546e-04
1.508582407239818755e-02,2.133713562811839586e-04
